{
  "project_info": {
    "project_number": "679128929690",
    "firebase_url": "https://loja-ls.firebaseio.com",
    "project_id": "loja-ls",
    "storage_bucket": "loja-ls.appspot.com"
  },
  "client": [
    {
      "client_info": {
        "mobilesdk_app_id": "1:679128929690:android:594dffa285725b82841623",
        "android_client_info": {
          "package_name": "br.com.ls.flutter_app"
        }
      },
      "oauth_client": [
        {
          "client_id": "679128929690-rtn4fns7a2sbmr8bbm61mjmhbc5sepql.apps.googleusercontent.com",
          "client_type": 3
        }
      ],
      "api_key": [
        {
          "current_key": "AIzaSyBcxwyDVrho_cjWM8Jf-9OG9dvG2fpzsEY"
        }
      ],
      "services": {
        "appinvite_service": {
          "other_platform_oauth_client": [
            {
              "client_id": "679128929690-rtn4fns7a2sbmr8bbm61mjmhbc5sepql.apps.googleusercontent.com",
              "client_type": 3
            }
          ]
        }
      }
    },
    {
      "client_info": {
        "mobilesdk_app_id": "1:679128929690:android:074812ed9108bca1841623",
        "android_client_info": {
          "package_name": "facec.com.br.loja_ls"
        }
      },
      "oauth_client": [
        {
          "client_id": "679128929690-rtn4fns7a2sbmr8bbm61mjmhbc5sepql.apps.googleusercontent.com",
          "client_type": 3
        }
      ],
      "api_key": [
        {
          "current_key": "AIzaSyBcxwyDVrho_cjWM8Jf-9OG9dvG2fpzsEY"
        }
      ],
      "services": {
        "appinvite_service": {
          "other_platform_oauth_client": [
            {
              "client_id": "679128929690-rtn4fns7a2sbmr8bbm61mjmhbc5sepql.apps.googleusercontent.com",
              "client_type": 3
            }
          ]
        }
      }
    }
  ],
  "configuration_version": "1"
}